{
    "name": "Dice",
    "rootNamespace": "",
    "references": [
        "GUID:0d8beb7f090555447a6cf5ce9e54dbb4",
        "GUID:9f24e12bdfec346d281853eb23f46577"
    ],
    "includePlatforms": [],
    "excludePlatforms": [],
    "allowUnsafeCode": false,
    "overrideReferences": false,
    "precompiledReferences": [],
    "autoReferenced": true,
    "defineConstraints": [],
    "versionDefines": [],
    "noEngineReferences": false
}