%YAML 1.1
%TAG !u! tag:unity3d.com,2011:
--- !u!114 &11400000
MonoBehaviour:
  m_ObjectHideFlags: 0
  m_CorrespondingSourceObject: {fileID: 0}
  m_PrefabInstance: {fileID: 0}
  m_PrefabAsset: {fileID: 0}
  m_GameObject: {fileID: 0}
  m_Enabled: 1
  m_EditorHideFlags: 0
  m_Script: {fileID: 11500000, guid: 7b0a4ff6dcf4b4515adecd4a4e0e77ce, type: 3}
  m_Name: EnemyCannonController
  m_EditorClassIdentifier: 
  minMaxCooldown:
    minValue: 3.5
    maxValue: 4.5
  minMaxShootAfterAimDelay:
    minValue: 1.5
    maxValue: 2.5
  minMaxShootDirection:
    maxValue: {x: 20, y: 50, z: 0}
    minValue: {x: -20, y: 10, z: 0}
